<svg xmlns="http://www.w3.org/2000/svg" width="24" height="24">
  <g fill="none" fill-rule="evenodd">
    <path stroke="#0078FF" stroke-width="2" d="M74.744 91H-52.744c-3.283 0-4.488-.306-5.692-.95a6.283 6.283 0 0 1-2.614-2.614c-.644-1.204-.95-2.409-.95-5.692V-9.744c0-3.283.306-4.488.95-5.692a6.283 6.283 0 0 1 2.614-2.614c1.204-.644 2.409-.95 5.692-.95H74.744c3.283 0 4.488.306 5.692.95a6.283 6.283 0 0 1 2.614 2.614c.644 1.204.95 2.409.95 5.692v91.488c0 3.283-.306 4.488-.95 5.692a6.283 6.283 0 0 1-2.614 2.614c-1.204.644-2.409.95-5.692.95z"/>
    <path fill="#0078FF" fill-rule="nonzero" d="M3 2a1 1 0 0 0-1 1v10a1 1 0 0 0 1 1h18a1 1 0 0 0 1-1V3a1 1 0 0 0-1-1H3zm1.912 2h14.176a1.5 1.5 0 0 0 .912.912v6.176a1.5 1.5 0 0 0-.912.912H4.912A1.5 1.5 0 0 0 4 11.088V4.912A1.5 1.5 0 0 0 4.912 4zM12 5a3 3 0 1 0 0 6 3 3 0 0 0 0-6zM7 7a1 1 0 1 0 0 2 1 1 0 0 0 0-2zm10 0a1 1 0 1 0 0 2 1 1 0 0 0 0-2zm-5.016 7.986A1 1 0 0 0 11 15.999v2H8.768a.51.51 0 0 0-.362.87l2.805 2.804a1.116 1.116 0 0 0 1.578 0l2.805-2.805a.51.51 0 0 0-.362-.869H13v-2a1 1 0 0 0-1.016-1.013z"/>
  </g>
</svg>
