<?xml version="1.0" encoding="UTF-8"?>
<svg width="42px" height="42px" viewBox="0 0 42 42" version="1.1" xmlns="http://www.w3.org/2000/svg" xmlns:xlink="http://www.w3.org/1999/xlink">
    <!-- Generator: Sketch 62 (91390) - https://sketch.com -->
    <title>ic_download</title>
    <desc>Created with Sketch.</desc>
    <g id="Page-1" stroke="none" stroke-width="1" fill="none" fill-rule="evenodd">
        <g id="Mobile---Seller---Step-2" transform="translate(-248.000000, -92.000000)">
            <rect fill="#FFFFFF" x="0" y="0" width="360" height="800"></rect>
            <path d="M268.014242,103 C267.462242,103 267.014242,103.448 267.014242,104 L267.014242,112 L263.514242,112 C263.2381,112 263.014242,112.223858 263.014242,112.5 C263.014242,112.632601 263.066954,112.759763 263.160727,112.853516 C263.17072,112.863723 263.181147,112.873498 263.191977,112.882812 L268.297445,117.697266 L268.330648,117.728516 C268.515749,117.902568 268.760163,117.999635 269.014242,118 C269.268322,117.999635 269.512736,117.902568 269.697836,117.728516 L269.711508,117.716797 C269.714793,117.712916 269.718048,117.709009 269.721273,117.705078 L274.824789,112.892578 C274.834917,112.883859 274.84469,112.874737 274.854086,112.865234 L274.861898,112.859375 C274.863868,112.857438 274.865821,112.855485 274.867758,112.853516 C274.961531,112.759763 275.014242,112.632601 275.014242,112.5 C275.014242,112.223858 274.790385,112 274.514242,112 L271.014242,112 L271.014242,104 C271.014242,103.448 270.566242,103 270.014242,103 L269.014242,103 L268.014242,103 Z M260.014242,121 C259.653607,120.9949 259.318161,121.184375 259.136355,121.495873 C258.954548,121.80737 258.954548,122.19263 259.136355,122.504127 C259.318161,122.815625 259.653607,123.0051 260.014242,123 L278.014242,123 C278.374878,123.0051 278.710324,122.815625 278.89213,122.504127 C279.073937,122.19263 279.073937,121.80737 278.89213,121.495873 C278.710324,121.184375 278.374878,120.9949 278.014242,121 L260.014242,121 Z" id="Shape" fill-opacity="0.6" fill="#000000" fill-rule="nonzero"></path>
        </g>
    </g>
</svg>