<?xml version="1.0" encoding="UTF-8"?>
<svg width="72px" height="72px" viewBox="0 0 72 72" version="1.1" xmlns="http://www.w3.org/2000/svg" xmlns:xlink="http://www.w3.org/1999/xlink">
    <!-- Generator: Sketch 62 (91390) - https://sketch.com -->
    <title>ic_seller</title>
    <desc>Created with Sketch.</desc>
    <defs>
        <linearGradient x1="50%" y1="0%" x2="50%" y2="100%" id="linearGradient-1">
            <stop stop-color="#FF8BA2" offset="0%"></stop>
            <stop stop-color="#C263BF" offset="100%"></stop>
        </linearGradient>
    </defs>
    <g id="Page-1" stroke="none" stroke-width="1" fill="none" fill-rule="evenodd">
        <g id="Mobile---Seller---Step-1" transform="translate(-144.000000, -117.000000)">
            <rect fill="#FFFFFF" x="0" y="0" width="360" height="723"></rect>
            <path d="M180,120.272727 C176.433238,120.272727 173.454545,123.25142 173.454545,126.818182 L173.454545,130.090909 L169.568182,130.090909 C167.931818,130.090909 166.627843,131.113636 166.295455,132.75 L160.977273,158.931818 C160.644888,160.90057 161.961647,162.818182 164.25,162.818182 L195.75,162.818182 C197.718752,162.818182 199.355115,160.90057 199.022727,158.931818 L193.704545,132.75 C193.372161,131.113636 192.068182,130.090909 190.431818,130.090909 L186.545455,130.090909 L186.545455,126.818182 C186.545455,123.25142 183.566762,120.272727 180,120.272727 Z M180,123.545455 C181.661933,123.545455 183.272727,125.156252 183.272727,126.818182 L183.272727,130.090909 L176.727273,130.090909 L176.727273,126.818182 C176.727273,125.156252 178.33807,123.545455 180,123.545455 Z M175.090909,133.363636 C176.075283,133.363636 176.727273,134.015626 176.727273,135 C176.727273,135.984374 176.075283,136.636364 175.090909,136.636364 C174.106535,136.636364 173.454545,135.984374 173.454545,135 C173.454545,134.015626 174.106535,133.363636 175.090909,133.363636 Z M184.909091,133.363636 C185.893465,133.363636 186.545455,134.015626 186.545455,135 C186.545455,135.984374 185.893465,136.636364 184.909091,136.636364 C183.924717,136.636364 183.272727,135.984374 183.272727,135 C183.272727,134.015626 183.924717,133.363636 184.909091,133.363636 Z M159.75,150.034091 L147.272727,157.295455 L147.272727,166.704545 L180,185.727273 L212.727273,166.704545 L212.727273,157.295455 L200.25,150.034091 L201.579545,156.272727 L208.534091,160.363636 L180,176.931818 L151.465909,160.363636 L158.420455,156.272727 L159.75,150.034091 Z" id="Shape" fill="url(#linearGradient-1)" fill-rule="nonzero"></path>
        </g>
    </g>
</svg>